{
  "status": "OK",
  "errorCode": null,
  "data": {
    "activity": {
      "activityId": {activityId},
      "creator": {
        "id": {activityCreatorId},
        "email": "{activityCreatorEmail}",
        "name": "{activityCreatorName}",
        {.section activityCreatorPhoneNumber}
        "phoneNumber": "{activityCreatorPhoneNumber}",
        {.or}
        "phoneNumber": null,
        {.end}
        "address": "{activityCreatorAddress}",
        "zipCode": "{activityCreatorZipCode}",
        "city": "{activityCreatorCity}",
        "changePassword": {activityCreatorChangePassword},
        "changedEmail": {activityCreatorChangedEmail},
        {.section activityCreatorPicturePath}
        "picture": {
            "path": "{activityCreatorPicturePath}",
            "thumbnailPath": "{activityCreatorPictureThumbnailPath}"
        },
        {.or}
        "picture": null,
        {.end}
        {.section activityCreatorLongitude}
        "longitude": "{activityCreatorLongitude}",
        {.or}
        "longitude": null,
        {.end}
        {.section activityCreatorLatitude}
        "latitude": "{activityCreatorLatitude}"
        {.or}
        "latitude": null
        {.end}
      },
      "createdAt": "{activityCreatedAt}",
      {.section activityType}
      "type": "{activityType}",
      {.or}
      "type": null,
      {.end}
      "discriminator": "{activityDiscriminator}",
      {.section activityContent}
      "content": "{activityContent}"
      {.or}
      "content": null
      {.end}
    },
    "alarmId": {alarmId}
  }
}